## Interface: 70300
## Title: |cff1784d1ElvUI |r|cfff02020ChaoticUI|r |cffff2020Private|r
## Author: Whiro
## Version: 1.0
## Notes: Private tweaks for ElvUI_ChaoticUI
## RequiredDeps: ElvUI_ChaoticUI
## X-oUF: ElvUF

load_private.xml