## Interface: 80000
## LoadOnDemand: 1
## Title: Lib: LibCandyBar-3.0
## Notes: Timer bars with that extra sweetness.
## Author: Funkydude
## X-Credits: Ammo, Rabbit
## X-Category: Library

embeds.xml
LibCandyBar-3.0\lib.xml

