﻿## Interface: 80000
## LoadOnDemand: 1
## Title: Lib: PeriodicTable-3.1 [|cffeda55fLFRLoot|r]
## Notes: PeriodicTable data module.
# Author: Nymbia
## Version: 3.1
## Dependencies: LibPeriodicTable-3.1
## X-Category: Library
## X-License: LGPL v2.1
## X-PeriodicTable-3.1-Module: TransmogSet

LibPeriodicTable-3.1-TransmogSet.lua
